simulation/qsim/Processador_7Instrucoes.msim.vcd
$comment
	File created using the following command:
		vcd file Processador_7Instrucoes.msim.vcd -direction
$end
$date
	Wed Jul 19 13:49:36 2023
$end
$version
	ModelSim Version 10.1d
$end
$timescale
	1ps
$end
$scope module ControlUnit_vlg_vec_tst $end
$var reg 1 ! clk $end
$var reg 16 " I_data [15:0] $end
$var reg 16 # PC_set [15:0] $end
$var reg 1 $ reset $end
$var reg 1 % RF_Rp_zero $end
$var wire 1 & ALU_Sel [1] $end
$var wire 1 ' ALU_Sel [0] $end
$var wire 1 ( D_addr [7] $end
$var wire 1 ) D_addr [6] $end
$var wire 1 * D_addr [5] $end
$var wire 1 + D_addr [4] $end
$var wire 1 , D_addr [3] $end
$var wire 1 - D_addr [2] $end
$var wire 1 . D_addr [1] $end
$var wire 1 / D_addr [0] $end
$var wire 1 0 D_rd $end
$var wire 1 1 D_wr $end
$var wire 1 2 I_addr [15] $end
$var wire 1 3 I_addr [14] $end
$var wire 1 4 I_addr [13] $end
$var wire 1 5 I_addr [12] $end
$var wire 1 6 I_addr [11] $end
$var wire 1 7 I_addr [10] $end
$var wire 1 8 I_addr [9] $end
$var wire 1 9 I_addr [8] $end
$var wire 1 : I_addr [7] $end
$var wire 1 ; I_addr [6] $end
$var wire 1 < I_addr [5] $end
$var wire 1 = I_addr [4] $end
$var wire 1 > I_addr [3] $end
$var wire 1 ? I_addr [2] $end
$var wire 1 @ I_addr [1] $end
$var wire 1 A I_addr [0] $end
$var wire 1 B I_rd $end
$var wire 1 C RF_Rp_addr [3] $end
$var wire 1 D RF_Rp_addr [2] $end
$var wire 1 E RF_Rp_addr [1] $end
$var wire 1 F RF_Rp_addr [0] $end
$var wire 1 G RF_Rp_Ren $end
$var wire 1 H RF_Rq_addr [3] $end
$var wire 1 I RF_Rq_addr [2] $end
$var wire 1 J RF_Rq_addr [1] $end
$var wire 1 K RF_Rq_addr [0] $end
$var wire 1 L RF_Rq_Ren $end
$var wire 1 M RF_Sel [1] $end
$var wire 1 N RF_Sel [0] $end
$var wire 1 O RF_W_addr [3] $end
$var wire 1 P RF_W_addr [2] $end
$var wire 1 Q RF_W_addr [1] $end
$var wire 1 R RF_W_addr [0] $end
$var wire 1 S RF_W_Data [7] $end
$var wire 1 T RF_W_Data [6] $end
$var wire 1 U RF_W_Data [5] $end
$var wire 1 V RF_W_Data [4] $end
$var wire 1 W RF_W_Data [3] $end
$var wire 1 X RF_W_Data [2] $end
$var wire 1 Y RF_W_Data [1] $end
$var wire 1 Z RF_W_Data [0] $end
$var wire 1 [ RF_W_Wen $end
$var wire 1 \ sampler $end
$scope module i1 $end
$var wire 1 ] gnd $end
$var wire 1 ^ vcc $end
$var wire 1 _ unknown $end
$var tri1 1 ` devclrn $end
$var tri1 1 a devpor $end
$var tri1 1 b devoe $end
$var wire 1 c PCounter|Add0~3_combout $end
$var wire 1 d PCounter|Add0~6_combout $end
$var wire 1 e PCounter|Add0~9_combout $end
$var wire 1 f PCounter|Add0~12_combout $end
$var wire 1 g PCounter|Add0~15_combout $end
$var wire 1 h PCounter|Add0~18_combout $end
$var wire 1 i PCounter|Add0~21_combout $end
$var wire 1 j PCounter|Add0~5_combout $end
$var wire 1 k PCounter|Add0~8_combout $end
$var wire 1 l PCounter|Add0~11_combout $end
$var wire 1 m PCounter|Add0~14_combout $end
$var wire 1 n PCounter|Add0~17_combout $end
$var wire 1 o PCounter|Add0~20_combout $end
$var wire 1 p PCounter|Add0~23_combout $end
$var wire 1 q PC_set[0]~input_o $end
$var wire 1 r PC_set[1]~input_o $end
$var wire 1 s PC_set[2]~input_o $end
$var wire 1 t PC_set[3]~input_o $end
$var wire 1 u PC_set[4]~input_o $end
$var wire 1 v PC_set[5]~input_o $end
$var wire 1 w PC_set[6]~input_o $end
$var wire 1 x PC_set[7]~input_o $end
$var wire 1 y PC_set[8]~input_o $end
$var wire 1 z PC_set[9]~input_o $end
$var wire 1 { PC_set[10]~input_o $end
$var wire 1 | PC_set[11]~input_o $end
$var wire 1 } PC_set[12]~input_o $end
$var wire 1 ~ PC_set[13]~input_o $end
$var wire 1 !! PC_set[14]~input_o $end
$var wire 1 "! PC_set[15]~input_o $end
$var wire 1 #! I_data[14]~input_o $end
$var wire 1 $! InstructionReader|IR_reg[14]~feeder_combout $end
$var wire 1 %! I_rd~output_o $end
$var wire 1 &! D_rd~output_o $end
$var wire 1 '! D_wr~output_o $end
$var wire 1 (! RF_W_Wen~output_o $end
$var wire 1 )! RF_Rp_Ren~output_o $end
$var wire 1 *! RF_Rq_Ren~output_o $end
$var wire 1 +! RF_W_addr[0]~output_o $end
$var wire 1 ,! RF_W_addr[1]~output_o $end
$var wire 1 -! RF_W_addr[2]~output_o $end
$var wire 1 .! RF_W_addr[3]~output_o $end
$var wire 1 /! RF_Rp_addr[0]~output_o $end
$var wire 1 0! RF_Rp_addr[1]~output_o $end
$var wire 1 1! RF_Rp_addr[2]~output_o $end
$var wire 1 2! RF_Rp_addr[3]~output_o $end
$var wire 1 3! RF_Rq_addr[0]~output_o $end
$var wire 1 4! RF_Rq_addr[1]~output_o $end
$var wire 1 5! RF_Rq_addr[2]~output_o $end
$var wire 1 6! RF_Rq_addr[3]~output_o $end
$var wire 1 7! RF_Sel[0]~output_o $end
$var wire 1 8! RF_Sel[1]~output_o $end
$var wire 1 9! ALU_Sel[0]~output_o $end
$var wire 1 :! ALU_Sel[1]~output_o $end
$var wire 1 ;! D_addr[0]~output_o $end
$var wire 1 <! D_addr[1]~output_o $end
$var wire 1 =! D_addr[2]~output_o $end
$var wire 1 >! D_addr[3]~output_o $end
$var wire 1 ?! D_addr[4]~output_o $end
$var wire 1 @! D_addr[5]~output_o $end
$var wire 1 A! D_addr[6]~output_o $end
$var wire 1 B! D_addr[7]~output_o $end
$var wire 1 C! RF_W_Data[0]~output_o $end
$var wire 1 D! RF_W_Data[1]~output_o $end
$var wire 1 E! RF_W_Data[2]~output_o $end
$var wire 1 F! RF_W_Data[3]~output_o $end
$var wire 1 G! RF_W_Data[4]~output_o $end
$var wire 1 H! RF_W_Data[5]~output_o $end
$var wire 1 I! RF_W_Data[6]~output_o $end
$var wire 1 J! RF_W_Data[7]~output_o $end
$var wire 1 K! I_addr[0]~output_o $end
$var wire 1 L! I_addr[1]~output_o $end
$var wire 1 M! I_addr[2]~output_o $end
$var wire 1 N! I_addr[3]~output_o $end
$var wire 1 O! I_addr[4]~output_o $end
$var wire 1 P! I_addr[5]~output_o $end
$var wire 1 Q! I_addr[6]~output_o $end
$var wire 1 R! I_addr[7]~output_o $end
$var wire 1 S! I_addr[8]~output_o $end
$var wire 1 T! I_addr[9]~output_o $end
$var wire 1 U! I_addr[10]~output_o $end
$var wire 1 V! I_addr[11]~output_o $end
$var wire 1 W! I_addr[12]~output_o $end
$var wire 1 X! I_addr[13]~output_o $end
$var wire 1 Y! I_addr[14]~output_o $end
$var wire 1 Z! I_addr[15]~output_o $end
$var wire 1 [! clk~input_o $end
$var wire 1 \! clk~inputclkctrl_outclk $end
$var wire 1 ]! reset~input_o $end
$var wire 1 ^! reset~inputclkctrl_outclk $end
$var wire 1 _! Control|stateReg.Decode~q $end
$var wire 1 `! I_data[15]~input_o $end
$var wire 1 a! Control|Selector2~0_combout $end
$var wire 1 b! I_data[13]~input_o $end
$var wire 1 c! InstructionReader|IR_reg[13]~feeder_combout $end
$var wire 1 d! I_data[12]~input_o $end
$var wire 1 e! InstructionReader|IR_reg[12]~feeder_combout $end
$var wire 1 f! Control|Selector20~1_combout $end
$var wire 1 g! Control|Selector20~2_combout $end
$var wire 1 h! Control|stateReg.Fetch~q $end
$var wire 1 i! Control|Selector2~1_combout $end
$var wire 1 j! Control|stateReg.Load~q $end
$var wire 1 k! Control|Selector4~0_combout $end
$var wire 1 l! Control|stateReg.Store~q $end
$var wire 1 m! Control|Selector7~0_combout $end
$var wire 1 n! Control|stateReg.Subtract~q $end
$var wire 1 o! Control|Selector5~0_combout $end
$var wire 1 p! Control|stateReg.Add~q $end
$var wire 1 q! Control|Selector6~0_combout $end
$var wire 1 r! Control|stateReg.LoadConst~q $end
$var wire 1 s! Control|WideOr0~0_combout $end
$var wire 1 t! Control|Selector11~0_combout $end
$var wire 1 u! Control|stateReg.LDAI~q $end
$var wire 1 v! Control|WideOr2~0_combout $end
$var wire 1 w! Control|WideOr3~combout $end
$var wire 1 x! Control|WideOr5~combout $end
$var wire 1 y! I_data[8]~input_o $end
$var wire 1 z! Control|RF_W_addr[0]~0_combout $end
$var wire 1 {! I_data[9]~input_o $end
$var wire 1 |! Control|RF_W_addr[1]~1_combout $end
$var wire 1 }! I_data[10]~input_o $end
$var wire 1 ~! Control|RF_W_addr[2]~2_combout $end
$var wire 1 !" I_data[11]~input_o $end
$var wire 1 "" Control|RF_W_addr[3]~3_combout $end
$var wire 1 #" I_data[4]~input_o $end
$var wire 1 $" Control|WideOr0~1_combout $end
$var wire 1 %" Control|Selector15~0_combout $end
$var wire 1 &" I_data[5]~input_o $end
$var wire 1 '" Control|Selector14~0_combout $end
$var wire 1 (" I_data[6]~input_o $end
$var wire 1 )" Control|Selector13~0_combout $end
$var wire 1 *" I_data[7]~input_o $end
$var wire 1 +" Control|Selector12~0_combout $end
$var wire 1 ," I_data[0]~input_o $end
$var wire 1 -" Control|Selector19~0_combout $end
$var wire 1 ." I_data[1]~input_o $end
$var wire 1 /" Control|Selector18~0_combout $end
$var wire 1 0" I_data[2]~input_o $end
$var wire 1 1" Control|Selector17~0_combout $end
$var wire 1 2" I_data[3]~input_o $end
$var wire 1 3" Control|Selector16~0_combout $end
$var wire 1 4" Control|D_addr03[0]~2_combout $end
$var wire 1 5" Control|D_addr03[1]~3_combout $end
$var wire 1 6" Control|D_addr03[2]~4_combout $end
$var wire 1 7" Control|D_addr03[3]~5_combout $end
$var wire 1 8" Control|D_addr47[0]~0_combout $end
$var wire 1 9" Control|D_addr47[1]~1_combout $end
$var wire 1 :" Control|D_addr47[2]~2_combout $end
$var wire 1 ;" Control|D_addr47[3]~3_combout $end
$var wire 1 <" Control|RF_W_data03[0]~1_combout $end
$var wire 1 =" Control|RF_W_data03[1]~2_combout $end
$var wire 1 >" Control|RF_W_data03[2]~3_combout $end
$var wire 1 ?" Control|RF_W_data03[3]~4_combout $end
$var wire 1 @" Control|RF_W_data47[0]~0_combout $end
$var wire 1 A" Control|RF_W_data47[1]~1_combout $end
$var wire 1 B" Control|RF_W_data47[2]~2_combout $end
$var wire 1 C" Control|RF_W_data47[3]~3_combout $end
$var wire 1 D" PCounter|Add0~0_combout $end
$var wire 1 E" RF_Rp_zero~input_o $end
$var wire 1 F" Control|Selector8~0_combout $end
$var wire 1 G" Control|stateReg.JumpIfZero~q $end
$var wire 1 H" Control|Selector20~0_combout $end
$var wire 1 I" Control|stateReg.JumpIfZeroJmp~feeder_combout $end
$var wire 1 J" Control|stateReg.JumpIfZeroJmp~q $end
$var wire 1 K" PCounter|Add0~2_combout $end
$var wire 1 L" PCounter|PC_reg[0]~16_combout $end
$var wire 1 M" Control|stateReg.Init~feeder_combout $end
$var wire 1 N" Control|stateReg.Init~q $end
$var wire 1 O" PCounter|PC_reg[14]~18_combout $end
$var wire 1 P" PCounter|PC_reg[0]~17 $end
$var wire 1 Q" PCounter|PC_reg[1]~19_combout $end
$var wire 1 R" PCounter|PC_reg[1]~20 $end
$var wire 1 S" PCounter|PC_reg[2]~21_combout $end
$var wire 1 T" PCounter|PC_reg[2]~22 $end
$var wire 1 U" PCounter|PC_reg[3]~23_combout $end
$var wire 1 V" PCounter|PC_reg[3]~24 $end
$var wire 1 W" PCounter|PC_reg[4]~25_combout $end
$var wire 1 X" PCounter|PC_reg[4]~26 $end
$var wire 1 Y" PCounter|PC_reg[5]~27_combout $end
$var wire 1 Z" PCounter|PC_reg[5]~28 $end
$var wire 1 [" PCounter|PC_reg[6]~29_combout $end
$var wire 1 \" PCounter|PC_reg[6]~30 $end
$var wire 1 ]" PCounter|PC_reg[7]~31_combout $end
$var wire 1 ^" PCounter|Add0~1 $end
$var wire 1 _" PCounter|Add0~4 $end
$var wire 1 `" PCounter|Add0~7 $end
$var wire 1 a" PCounter|Add0~10 $end
$var wire 1 b" PCounter|Add0~13 $end
$var wire 1 c" PCounter|Add0~16 $end
$var wire 1 d" PCounter|Add0~19 $end
$var wire 1 e" PCounter|Add0~22 $end
$var wire 1 f" PCounter|Add0~24_combout $end
$var wire 1 g" PCounter|Add0~26_combout $end
$var wire 1 h" PCounter|PC_reg[7]~32 $end
$var wire 1 i" PCounter|PC_reg[8]~33_combout $end
$var wire 1 j" PCounter|Add0~25 $end
$var wire 1 k" PCounter|Add0~27_combout $end
$var wire 1 l" PCounter|Add0~29_combout $end
$var wire 1 m" PCounter|PC_reg[8]~34 $end
$var wire 1 n" PCounter|PC_reg[9]~35_combout $end
$var wire 1 o" PCounter|Add0~28 $end
$var wire 1 p" PCounter|Add0~30_combout $end
$var wire 1 q" PCounter|Add0~32_combout $end
$var wire 1 r" PCounter|PC_reg[9]~36 $end
$var wire 1 s" PCounter|PC_reg[10]~37_combout $end
$var wire 1 t" PCounter|Add0~31 $end
$var wire 1 u" PCounter|Add0~33_combout $end
$var wire 1 v" PCounter|Add0~35_combout $end
$var wire 1 w" PCounter|PC_reg[10]~38 $end
$var wire 1 x" PCounter|PC_reg[11]~39_combout $end
$var wire 1 y" PCounter|Add0~34 $end
$var wire 1 z" PCounter|Add0~36_combout $end
$var wire 1 {" PCounter|Add0~38_combout $end
$var wire 1 |" PCounter|PC_reg[11]~40 $end
$var wire 1 }" PCounter|PC_reg[12]~41_combout $end
$var wire 1 ~" PCounter|Add0~37 $end
$var wire 1 !# PCounter|Add0~39_combout $end
$var wire 1 "# PCounter|Add0~41_combout $end
$var wire 1 ## PCounter|PC_reg[12]~42 $end
$var wire 1 $# PCounter|PC_reg[13]~43_combout $end
$var wire 1 %# PCounter|Add0~40 $end
$var wire 1 &# PCounter|Add0~42_combout $end
$var wire 1 '# PCounter|Add0~44_combout $end
$var wire 1 (# PCounter|PC_reg[13]~44 $end
$var wire 1 )# PCounter|PC_reg[14]~45_combout $end
$var wire 1 *# PCounter|Add0~43 $end
$var wire 1 +# PCounter|Add0~45_combout $end
$var wire 1 ,# PCounter|Add0~47_combout $end
$var wire 1 -# PCounter|PC_reg[14]~46 $end
$var wire 1 .# PCounter|PC_reg[15]~47_combout $end
$var wire 1 /# PCounter|PC_reg [15] $end
$var wire 1 0# PCounter|PC_reg [14] $end
$var wire 1 1# PCounter|PC_reg [13] $end
$var wire 1 2# PCounter|PC_reg [12] $end
$var wire 1 3# PCounter|PC_reg [11] $end
$var wire 1 4# PCounter|PC_reg [10] $end
$var wire 1 5# PCounter|PC_reg [9] $end
$var wire 1 6# PCounter|PC_reg [8] $end
$var wire 1 7# PCounter|PC_reg [7] $end
$var wire 1 8# PCounter|PC_reg [6] $end
$var wire 1 9# PCounter|PC_reg [5] $end
$var wire 1 :# PCounter|PC_reg [4] $end
$var wire 1 ;# PCounter|PC_reg [3] $end
$var wire 1 <# PCounter|PC_reg [2] $end
$var wire 1 =# PCounter|PC_reg [1] $end
$var wire 1 ># PCounter|PC_reg [0] $end
$var wire 1 ?# InstructionReader|IR_reg [15] $end
$var wire 1 @# InstructionReader|IR_reg [14] $end
$var wire 1 A# InstructionReader|IR_reg [13] $end
$var wire 1 B# InstructionReader|IR_reg [12] $end
$var wire 1 C# InstructionReader|IR_reg [11] $end
$var wire 1 D# InstructionReader|IR_reg [10] $end
$var wire 1 E# InstructionReader|IR_reg [9] $end
$var wire 1 F# InstructionReader|IR_reg [8] $end
$var wire 1 G# InstructionReader|IR_reg [7] $end
$var wire 1 H# InstructionReader|IR_reg [6] $end
$var wire 1 I# InstructionReader|IR_reg [5] $end
$var wire 1 J# InstructionReader|IR_reg [4] $end
$var wire 1 K# InstructionReader|IR_reg [3] $end
$var wire 1 L# InstructionReader|IR_reg [2] $end
$var wire 1 M# InstructionReader|IR_reg [1] $end
$var wire 1 N# InstructionReader|IR_reg [0] $end
$upscope $end
$upscope $end
$enddefinitions $end
#0
$dumpvars
0!
b11000000000000 "
b0 #
0$
0%
0'
0&
0/
0.
0-
0,
0+
0*
0)
0(
00
01
0A
0@
0?
0>
0=
0<
0;
0:
09
08
07
06
05
04
03
02
0B
0F
0E
0D
0C
0G
0K
0J
0I
0H
0L
0N
0M
0R
0Q
0P
0O
0Z
0Y
0X
0W
0V
0U
0T
0S
0[
x\
0]
1^
x_
1`
1a
1b
0c
0d
0e
0f
0g
0h
0i
0j
0k
0l
0m
0n
0o
0p
0q
0r
0s
0t
0u
0v
0w
0x
0y
0z
0{
0|
0}
0~
0!!
0"!
0#!
0$!
0%!
0&!
0'!
0(!
0)!
0*!
0+!
0,!
0-!
0.!
0/!
00!
01!
02!
03!
04!
05!
06!
07!
08!
09!
0:!
0;!
0<!
0=!
0>!
0?!
0@!
0A!
0B!
0C!
0D!
0E!
0F!
0G!
0H!
0I!
0J!
0K!
0L!
0M!
0N!
0O!
0P!
0Q!
0R!
0S!
0T!
0U!
0V!
0W!
0X!
0Y!
0Z!
0[!
0\!
0]!
0^!
0_!
0`!
0a!
1b!
1c!
1d!
1e!
0f!
1g!
0h!
0i!
0j!
0k!
0l!
0m!
0n!
0o!
0p!
0q!
0r!
0s!
0t!
0u!
1v!
0w!
0x!
0y!
0z!
0{!
0|!
0}!
0~!
0!"
0""
0#"
1$"
0%"
0&"
0'"
0("
0)"
0*"
0+"
0,"
0-"
0."
0/"
00"
01"
02"
03"
04"
05"
06"
07"
08"
09"
0:"
0;"
0<"
0="
0>"
0?"
0@"
0A"
0B"
0C"
0D"
0E"
0F"
0G"
0H"
0I"
0J"
0K"
1L"
1M"
0N"
1O"
0P"
0Q"
1R"
0S"
0T"
0U"
1V"
0W"
0X"
0Y"
1Z"
0["
0\"
0]"
0^"
1_"
0`"
1a"
0b"
1c"
0d"
1e"
0f"
0g"
1h"
0i"
0j"
0k"
0l"
0m"
0n"
1o"
0p"
0q"
1r"
0s"
0t"
0u"
0v"
0w"
0x"
1y"
0z"
0{"
1|"
0}"
0~"
0!#
0"#
0##
0$#
1%#
0&#
0'#
1(#
0)#
0*#
0+#
0,#
0-#
0.#
0>#
0=#
0<#
0;#
0:#
09#
08#
07#
06#
05#
04#
03#
02#
01#
00#
0/#
0N#
0M#
0L#
0K#
0J#
0I#
0H#
0G#
0F#
0E#
0D#
0C#
0B#
0A#
0@#
0?#
$end
#6250
1!
1[!
1\!
0\
1N"
1h!
0g!
1%!
1B
#12500
0!
0[!
0\!
1\
#18750
1!
1[!
1\!
0\
1B#
1A#
1_!
1>#
0h!
1a!
1K"
1D"
0O"
1g!
1K!
0%!
1A
0B
1q!
0g!
1P"
0L"
1Q"
#25000
0!
0[!
0\!
1\
#31250
1!
1[!
1\!
0\
0_!
1r!
0a!
18!
1M
1s!
0q!
1g!
1(!
1[
#37500
0!
0[!
0\!
1\
#43750
1!
1[!
1\!
0\
0r!
1h!
1O"
0g!
08!
1%!
0M
1B
0s!
0(!
0[
#50000
b11000100000000 "
b11000100000001 "
0!
1,"
1y!
0[!
0\!
1\
#56250
1!
1[!
1\!
0\
1N#
1F#
1_!
1=#
0>#
0h!
1a!
1j
1c
0K"
0O"
1g!
1L!
0K!
0%!
1@
0A
0B
1q!
0g!
0R"
0Q"
0P"
1L"
1S"
1R"
1Q"
0S"
#62500
0!
0[!
0\!
1\
#68750
1!
1[!
1\!
0\
0_!
1r!
0a!
18!
1M
1<"
1s!
0q!
1g!
1C!
1(!
1Z
1[
1z!
1+!
1R
#75000
0!
0[!
0\!
1\
#80000
b1000100000001 "
b100000001 "
b1100000001 "
b1100000101 "
b1000000101 "
b1000000100 "
0,"
10"
0y!
1{!
0d!
0b!
0\
0e!
0c!
#81250
1!
1[!
1\!
1\
0r!
1h!
1O"
0g!
08!
1%!
0M
1B
0<"
0s!
0C!
0(!
0Z
0[
0z!
0+!
0R
#87500
0!
0[!
0\!
0\
#93750
1!
1[!
1\!
1\
1L#
0N#
1E#
0F#
0B#
0A#
1_!
1>#
0h!
1d
1a!
1K"
0O"
1g!
1K!
0%!
1A
0B
1i!
0g!
1P"
0L"
0R"
0Q"
1S"
#100000
0!
0[!
0\!
0\
#106250
1!
1[!
1\!
1\
0_!
1j!
0a!
17!
1&!
1N
10
16"
1s!
0i!
1g!
1=!
1(!
1-
1[
1|!
1,!
1Q
#110000
b1000000110 "
b1000000010 "
1."
00"
0\
#112500
0!
0[!
0\!
1\
#118750
1!
1[!
1\!
0\
0j!
1h!
1O"
0g!
07!
0&!
1%!
0N
00
1B
06"
0s!
0=!
0(!
0-
0[
0|!
0,!
0Q
#125000
0!
0[!
0\!
1\
#131250
1!
1[!
1\!
0\
0L#
1M#
1_!
1<#
0=#
0>#
0h!
1a!
1k
0j
0K"
0D"
0O"
1g!
1M!
0L!
0K!
0%!
1?
0@
0A
0B
1i!
0g!
1T"
0S"
1R"
1Q"
0P"
1L"
1U"
0T"
1S"
0Q"
0U"
#137500
0!
0[!
0\!
1\
#140000
b10001000000010 "
b10000000000010 "
b10000000000011 "
b10000000000001 "
1,"
0."
0{!
1b!
0\
1c!
#143750
1!
1[!
1\!
1\
0_!
1j!
0a!
17!
1&!
1N
10
15"
1s!
0i!
1g!
1<!
1(!
1.
1[
1|!
1,!
1Q
#150000
0!
0[!
0\!
0\
#156250
1!
1[!
1\!
1\
0j!
1h!
1O"
0g!
07!
0&!
1%!
0N
00
1B
05"
0s!
0<!
0(!
0.
0[
0|!
0,!
0Q
#162500
0!
0[!
0\!
0\
#168750
1!
1[!
1\!
1\
0M#
1N#
0E#
1A#
1_!
1>#
0h!
0c
1^"
1a!
1K"
0O"
1g!
1K!
0%!
1A
0B
1c
1o!
0g!
1P"
0L"
1Q"
#170000
b10000000000101 "
b101 "
b1000000101 "
10"
1{!
0b!
0\
0c!
#175000
0!
0[!
0\!
1\
#181250
1!
1[!
1\!
0\
1p!
0_!
0$"
0a!
1x!
1w!
1s!
0o!
1g!
1*!
1)!
1(!
1L
1G
1[
1-"
13!
1K
#187500
0!
0[!
0\!
1\
#193750
1!
1[!
1\!
0\
0p!
1h!
1$"
1O"
0g!
1%!
1B
0x!
0w!
0s!
0*!
0)!
0(!
0L
0G
0[
0-"
03!
0K
#200000
b100001000000101 "
b101001000000101 "
b101001000000100 "
b101001000000110 "
b101001000000010 "
0!
0,"
1."
00"
1d!
1#!
0[!
0\!
1\
1e!
1$!
#206250
1!
1[!
1\!
0\
1M#
0N#
1E#
1B#
0A#
1_!
1@#
1=#
0>#
0h!
0_"
0^"
1a!
1j
0K"
0O"
1g!
1L!
0K!
0%!
1@
0A
0B
1`"
0d
0c
1F"
0g!
0R"
0Q"
0P"
1L"
1e
1T"
0S"
1R"
1Q"
1U"
0T"
1S"
0U"
#212500
0!
0[!
0\!
1\
#218750
1!
1[!
1\!
0\
1G"
0_!
0v!
0a!
0F"
1g!
1'"
1w!
10!
1)!
1E
1G
#225000
0!
0[!
0\!
1\
#230000
b111001000000010 "
b111000000000010 "
b11000000000010 "
b10000000000010 "
b10000000000011 "
b10000000000001 "
1,"
0."
0{!
0d!
1b!
0#!
0\
0e!
1c!
0$!
#231250
1!
1[!
1\!
1\
0G"
1h!
1v!
1O"
0g!
1%!
1B
0'"
0w!
00!
0)!
0E
0G
#237500
0!
0[!
0\!
0\
#243750
1!
1[!
1\!
1\
0M#
1N#
0E#
0B#
1A#
1_!
0@#
1>#
0h!
1_"
1c
1^"
1a!
1K"
0O"
1g!
1K!
0%!
1A
0B
0`"
1d
0_"
0c
1o!
0g!
1P"
0L"
0e
1`"
0d
0R"
0Q"
1e
1T"
0S"
1U"
#250000
0!
0[!
0\!
0\
#256250
1!
1[!
1\!
1\
1p!
0_!
0$"
0a!
1x!
1w!
1s!
0o!
1g!
1*!
1)!
1(!
1L
1G
1[
1-"
13!
1K
#260000
b10000000001001 "
b1001 "
b1000000001001 "
12"
1d!
0b!
0\
1e!
0c!
#262500
0!
0[!
0\!
1\
#268750
1!
1[!
1\!
0\
0p!
1h!
1$"
1O"
0g!
1%!
1B
0x!
0w!
0s!
0*!
0)!
0(!
0L
0G
0[
0-"
03!
0K
#275000
0!
0[!
0\!
1\
#281250
1!
1[!
1\!
0\
1K#
1B#
0A#
1_!
1;#
0<#
0=#
0>#
0h!
0a"
1a!
1l
0k
0`"
1d
0j
1_"
1c
0K"
0^"
1D"
0O"
1g!
1N!
0M!
0L!
0K!
0%!
1>
0?
0@
0A
0B
1f
1k!
0g!
0V"
0U"
0T"
1S"
0e
1R"
1Q"
0d
0P"
1L"
0c
1W"
1V"
1U"
0S"
0Q"
0W"
#287500
0!
0[!
0\!
1\
#290000
b1000000001000 "
b1000000000000 "
b0 "
0,"
02"
0d!
0\
0e!
#293750
1!
1[!
1\!
1\
0_!
1l!
0a!
0v!
1'!
11
17"
14"
0k!
1g!
1>!
1;!
1,
1/
1w!
1)!
1G
#300000
0!
0[!
0\!
0\
#306250
1!
1[!
1\!
1\
0l!
1h!
1v!
1O"
0g!
0'!
1%!
01
1B
07"
04"
0>!
0;!
0,
0/
0w!
0)!
0G
#312500
0!
0[!
0\!
0\
#318750
1!
1[!
1\!
1\
0K#
0N#
0B#
1_!
1>#
0h!
1a"
1e
1a!
1K"
0O"
1g!
1K!
0%!
1A
0B
0f
1i!
0g!
1P"
0L"
1Q"
#325000
0!
0[!
0\!
0\
#331250
1!
1[!
1\!
1\
0_!
1j!
0a!
17!
1&!
1N
10
1s!
0i!
1g!
1(!
1[
#337500
0!
0[!
0\!
0\
#343750
1!
1[!
1\!
1\
0j!
1h!
1O"
0g!
07!
0&!
1%!
0N
00
1B
0s!
0(!
0[
#350000
0!
0[!
0\!
0\
#356250
1!
1[!
1\!
1\
1_!
1=#
0>#
0h!
1a!
1j
1c
0K"
0D"
0O"
1g!
1L!
0K!
0%!
1@
0A
0B
1i!
0g!
0R"
0Q"
0P"
1L"
1S"
1R"
1Q"
0S"
#362500
0!
0[!
0\!
0\
#368750
1!
1[!
1\!
1\
0_!
1j!
0a!
17!
1&!
1N
10
1s!
0i!
1g!
1(!
1[
#375000
0!
0[!
0\!
0\
#381250
1!
1[!
1\!
1\
0j!
1h!
1O"
0g!
07!
0&!
1%!
0N
00
1B
0s!
0(!
0[
#387500
0!
0[!
0\!
0\
#393750
1!
1[!
1\!
1\
1_!
1>#
0h!
1a!
1K"
1D"
0O"
1g!
1K!
0%!
1A
0B
1i!
0g!
1P"
0L"
0R"
0Q"
1S"
#400000
0!
0[!
0\!
0\
#406250
1!
1[!
1\!
1\
0_!
1j!
0a!
17!
1&!
1N
10
1s!
0i!
1g!
1(!
1[
#412500
0!
0[!
0\!
0\
#418750
1!
1[!
1\!
1\
0j!
1h!
1O"
0g!
07!
0&!
1%!
0N
00
1B
0s!
0(!
0[
#425000
0!
0[!
0\!
0\
#431250
1!
1[!
1\!
1\
1_!
1<#
0=#
0>#
0h!
1a!
1k
1d
0j
0c
0K"
0D"
0O"
1g!
1M!
0L!
0K!
0%!
1?
0@
0A
0B
1i!
0g!
1T"
0S"
1R"
1Q"
0P"
1L"
0V"
0U"
0T"
1S"
0Q"
1W"
1V"
1U"
0W"
#437500
0!
0[!
0\!
0\
#443750
1!
1[!
1\!
1\
0_!
1j!
0a!
17!
1&!
1N
10
1s!
0i!
1g!
1(!
1[
#450000
0!
0[!
0\!
0\
#456250
1!
1[!
1\!
1\
0j!
1h!
1O"
0g!
07!
0&!
1%!
0N
00
1B
0s!
0(!
0[
#462500
0!
0[!
0\!
0\
#468750
1!
1[!
1\!
1\
1_!
1>#
0h!
1a!
1K"
1D"
0O"
1g!
1K!
0%!
1A
0B
1i!
0g!
1P"
0L"
1Q"
#475000
0!
0[!
0\!
0\
#481250
1!
1[!
1\!
1\
0_!
1j!
0a!
17!
1&!
1N
10
1s!
0i!
1g!
1(!
1[
#487500
0!
0[!
0\!
0\
#493750
1!
1[!
1\!
1\
0j!
1h!
1O"
0g!
07!
0&!
1%!
0N
00
1B
0s!
0(!
0[
#500000
0!
0[!
0\!
0\
#506250
1!
1[!
1\!
1\
1_!
1=#
0>#
0h!
1a!
1j
1c
0K"
0D"
0O"
1g!
1L!
0K!
0%!
1@
0A
0B
1i!
0g!
0R"
0Q"
0P"
1L"
1T"
0S"
1R"
1Q"
0V"
0U"
0T"
1S"
1W"
1V"
1U"
0W"
#512500
0!
0[!
0\!
0\
#518750
1!
1[!
1\!
1\
0_!
1j!
0a!
17!
1&!
1N
10
1s!
0i!
1g!
1(!
1[
#525000
0!
0[!
0\!
0\
#531250
1!
1[!
1\!
1\
0j!
1h!
1O"
0g!
07!
0&!
1%!
0N
00
1B
0s!
0(!
0[
#537500
0!
0[!
0\!
0\
#543750
1!
1[!
1\!
1\
1_!
1>#
0h!
1a!
1K"
1D"
0O"
1g!
1K!
0%!
1A
0B
1i!
0g!
1P"
0L"
0R"
0Q"
1T"
0S"
0V"
0U"
1W"
#550000
0!
0[!
0\!
0\
#556250
1!
1[!
1\!
1\
0_!
1j!
0a!
17!
1&!
1N
10
1s!
0i!
1g!
1(!
1[
#562500
0!
0[!
0\!
0\
#568750
1!
1[!
1\!
1\
0j!
1h!
1O"
0g!
07!
0&!
1%!
0N
00
1B
0s!
0(!
0[
#575000
0!
0[!
0\!
0\
