simulation/qsim/Processador_7Instrucoes.msim.vcd
$comment
	File created using the following command:
		vcd file Processador_7Instrucoes.msim.vcd -direction
$end
$date
	Wed Jul 19 16:11:42 2023
$end
$version
	ModelSim Version 10.1d
$end
$timescale
	1ps
$end
$scope module ControlUnit_vlg_vec_tst $end
$var reg 1 ! clk $end
$var reg 16 " I_data [15:0] $end
$var reg 16 # PC_set [15:0] $end
$var reg 1 $ reset $end
$var reg 1 % RF_Rp_zero $end
$var wire 1 & ALU_Sel [1] $end
$var wire 1 ' ALU_Sel [0] $end
$var wire 1 ( D_addr [7] $end
$var wire 1 ) D_addr [6] $end
$var wire 1 * D_addr [5] $end
$var wire 1 + D_addr [4] $end
$var wire 1 , D_addr [3] $end
$var wire 1 - D_addr [2] $end
$var wire 1 . D_addr [1] $end
$var wire 1 / D_addr [0] $end
$var wire 1 0 D_rd $end
$var wire 1 1 D_sel $end
$var wire 1 2 D_wr $end
$var wire 1 3 I_addr [15] $end
$var wire 1 4 I_addr [14] $end
$var wire 1 5 I_addr [13] $end
$var wire 1 6 I_addr [12] $end
$var wire 1 7 I_addr [11] $end
$var wire 1 8 I_addr [10] $end
$var wire 1 9 I_addr [9] $end
$var wire 1 : I_addr [8] $end
$var wire 1 ; I_addr [7] $end
$var wire 1 < I_addr [6] $end
$var wire 1 = I_addr [5] $end
$var wire 1 > I_addr [4] $end
$var wire 1 ? I_addr [3] $end
$var wire 1 @ I_addr [2] $end
$var wire 1 A I_addr [1] $end
$var wire 1 B I_addr [0] $end
$var wire 1 C I_rd $end
$var wire 1 D RF_Rp_addr [3] $end
$var wire 1 E RF_Rp_addr [2] $end
$var wire 1 F RF_Rp_addr [1] $end
$var wire 1 G RF_Rp_addr [0] $end
$var wire 1 H RF_Rp_Ren $end
$var wire 1 I RF_Rq_addr [3] $end
$var wire 1 J RF_Rq_addr [2] $end
$var wire 1 K RF_Rq_addr [1] $end
$var wire 1 L RF_Rq_addr [0] $end
$var wire 1 M RF_Rq_Ren $end
$var wire 1 N RF_Sel [1] $end
$var wire 1 O RF_Sel [0] $end
$var wire 1 P RF_W_addr [3] $end
$var wire 1 Q RF_W_addr [2] $end
$var wire 1 R RF_W_addr [1] $end
$var wire 1 S RF_W_addr [0] $end
$var wire 1 T RF_W_Data [7] $end
$var wire 1 U RF_W_Data [6] $end
$var wire 1 V RF_W_Data [5] $end
$var wire 1 W RF_W_Data [4] $end
$var wire 1 X RF_W_Data [3] $end
$var wire 1 Y RF_W_Data [2] $end
$var wire 1 Z RF_W_Data [1] $end
$var wire 1 [ RF_W_Data [0] $end
$var wire 1 \ RF_W_Wen $end
$var wire 1 ] sampler $end
$scope module i1 $end
$var wire 1 ^ gnd $end
$var wire 1 _ vcc $end
$var wire 1 ` unknown $end
$var tri1 1 a devclrn $end
$var tri1 1 b devpor $end
$var tri1 1 c devoe $end
$var wire 1 d PCounter|Add0~0_combout $end
$var wire 1 e PCounter|Add0~1 $end
$var wire 1 f PCounter|Add0~3_combout $end
$var wire 1 g PCounter|Add0~4 $end
$var wire 1 h PCounter|Add0~6_combout $end
$var wire 1 i PCounter|Add0~7 $end
$var wire 1 j PCounter|Add0~9_combout $end
$var wire 1 k PCounter|Add0~10 $end
$var wire 1 l PCounter|Add0~12_combout $end
$var wire 1 m PCounter|Add0~13 $end
$var wire 1 n PCounter|Add0~15_combout $end
$var wire 1 o PCounter|Add0~16 $end
$var wire 1 p PCounter|Add0~18_combout $end
$var wire 1 q PCounter|Add0~19 $end
$var wire 1 r PCounter|Add0~21_combout $end
$var wire 1 s PCounter|Add0~22 $end
$var wire 1 t PCounter|Add0~24_combout $end
$var wire 1 u PCounter|Add0~25 $end
$var wire 1 v PCounter|Add0~27_combout $end
$var wire 1 w PCounter|Add0~28 $end
$var wire 1 x PCounter|Add0~30_combout $end
$var wire 1 y PCounter|Add0~31 $end
$var wire 1 z PCounter|Add0~33_combout $end
$var wire 1 { PCounter|Add0~34 $end
$var wire 1 | PCounter|Add0~36_combout $end
$var wire 1 } PCounter|Add0~37 $end
$var wire 1 ~ PCounter|Add0~39_combout $end
$var wire 1 !! PCounter|Add0~40 $end
$var wire 1 "! PCounter|Add0~42_combout $end
$var wire 1 #! PCounter|Add0~43 $end
$var wire 1 $! PCounter|Add0~45_combout $end
$var wire 1 %! Control|Selector8~0_combout $end
$var wire 1 &! PCounter|Add0~2_combout $end
$var wire 1 '! PC_set[0]~input_o $end
$var wire 1 (! PC_set[1]~input_o $end
$var wire 1 )! PC_set[2]~input_o $end
$var wire 1 *! PC_set[3]~input_o $end
$var wire 1 +! PC_set[4]~input_o $end
$var wire 1 ,! PC_set[5]~input_o $end
$var wire 1 -! PC_set[6]~input_o $end
$var wire 1 .! PC_set[7]~input_o $end
$var wire 1 /! PC_set[8]~input_o $end
$var wire 1 0! PC_set[9]~input_o $end
$var wire 1 1! PC_set[10]~input_o $end
$var wire 1 2! PC_set[11]~input_o $end
$var wire 1 3! PC_set[12]~input_o $end
$var wire 1 4! PC_set[13]~input_o $end
$var wire 1 5! PC_set[14]~input_o $end
$var wire 1 6! PC_set[15]~input_o $end
$var wire 1 7! I_rd~output_o $end
$var wire 1 8! D_rd~output_o $end
$var wire 1 9! D_wr~output_o $end
$var wire 1 :! RF_W_Wen~output_o $end
$var wire 1 ;! RF_Rp_Ren~output_o $end
$var wire 1 <! RF_Rq_Ren~output_o $end
$var wire 1 =! D_sel~output_o $end
$var wire 1 >! RF_W_addr[0]~output_o $end
$var wire 1 ?! RF_W_addr[1]~output_o $end
$var wire 1 @! RF_W_addr[2]~output_o $end
$var wire 1 A! RF_W_addr[3]~output_o $end
$var wire 1 B! RF_Rp_addr[0]~output_o $end
$var wire 1 C! RF_Rp_addr[1]~output_o $end
$var wire 1 D! RF_Rp_addr[2]~output_o $end
$var wire 1 E! RF_Rp_addr[3]~output_o $end
$var wire 1 F! RF_Rq_addr[0]~output_o $end
$var wire 1 G! RF_Rq_addr[1]~output_o $end
$var wire 1 H! RF_Rq_addr[2]~output_o $end
$var wire 1 I! RF_Rq_addr[3]~output_o $end
$var wire 1 J! RF_Sel[0]~output_o $end
$var wire 1 K! RF_Sel[1]~output_o $end
$var wire 1 L! ALU_Sel[0]~output_o $end
$var wire 1 M! ALU_Sel[1]~output_o $end
$var wire 1 N! D_addr[0]~output_o $end
$var wire 1 O! D_addr[1]~output_o $end
$var wire 1 P! D_addr[2]~output_o $end
$var wire 1 Q! D_addr[3]~output_o $end
$var wire 1 R! D_addr[4]~output_o $end
$var wire 1 S! D_addr[5]~output_o $end
$var wire 1 T! D_addr[6]~output_o $end
$var wire 1 U! D_addr[7]~output_o $end
$var wire 1 V! RF_W_Data[0]~output_o $end
$var wire 1 W! RF_W_Data[1]~output_o $end
$var wire 1 X! RF_W_Data[2]~output_o $end
$var wire 1 Y! RF_W_Data[3]~output_o $end
$var wire 1 Z! RF_W_Data[4]~output_o $end
$var wire 1 [! RF_W_Data[5]~output_o $end
$var wire 1 \! RF_W_Data[6]~output_o $end
$var wire 1 ]! RF_W_Data[7]~output_o $end
$var wire 1 ^! I_addr[0]~output_o $end
$var wire 1 _! I_addr[1]~output_o $end
$var wire 1 `! I_addr[2]~output_o $end
$var wire 1 a! I_addr[3]~output_o $end
$var wire 1 b! I_addr[4]~output_o $end
$var wire 1 c! I_addr[5]~output_o $end
$var wire 1 d! I_addr[6]~output_o $end
$var wire 1 e! I_addr[7]~output_o $end
$var wire 1 f! I_addr[8]~output_o $end
$var wire 1 g! I_addr[9]~output_o $end
$var wire 1 h! I_addr[10]~output_o $end
$var wire 1 i! I_addr[11]~output_o $end
$var wire 1 j! I_addr[12]~output_o $end
$var wire 1 k! I_addr[13]~output_o $end
$var wire 1 l! I_addr[14]~output_o $end
$var wire 1 m! I_addr[15]~output_o $end
$var wire 1 n! clk~input_o $end
$var wire 1 o! reset~input_o $end
$var wire 1 p! Control|stateReg.Decode~q $end
$var wire 1 q! I_data[12]~input_o $end
$var wire 1 r! I_data[13]~input_o $end
$var wire 1 s! I_data[14]~input_o $end
$var wire 1 t! Control|Selector8~1_combout $end
$var wire 1 u! Control|Selector8~2_combout $end
$var wire 1 v! Control|stateReg.Fetch~q $end
$var wire 1 w! Control|nextState.Load~1_combout $end
$var wire 1 x! Control|stateReg.Load~q $end
$var wire 1 y! I_data[15]~input_o $end
$var wire 1 z! Control|nextState.Load~0_combout $end
$var wire 1 {! Control|nextState.LDAI~0_combout $end
$var wire 1 |! Control|stateReg.LDAI~q $end
$var wire 1 }! Control|D_rd~combout $end
$var wire 1 ~! Control|nextState.Store~1_combout $end
$var wire 1 !" Control|stateReg.Store~q $end
$var wire 1 "" Control|nextState.Store~0_combout $end
$var wire 1 #" Control|nextState.LoadConst~0_combout $end
$var wire 1 $" Control|stateReg.LoadConst~q $end
$var wire 1 %" Control|nextState.Add~0_combout $end
$var wire 1 &" Control|stateReg.Add~q $end
$var wire 1 '" Control|nextState.Subtract~0_combout $end
$var wire 1 (" Control|stateReg.Subtract~q $end
$var wire 1 )" Control|WideOr0~0_combout $end
$var wire 1 *" Control|WideOr0~combout $end
$var wire 1 +" Control|nextState.JumpIfZero~0_combout $end
$var wire 1 ," Control|stateReg.JumpIfZero~q $end
$var wire 1 -" Control|RF_Rp_addr~0_combout $end
$var wire 1 ." Control|WideOr4~combout $end
$var wire 1 /" I_data[8]~input_o $end
$var wire 1 0" Control|WideOr2~combout $end
$var wire 1 1" I_data[4]~input_o $end
$var wire 1 2" Control|Selector3~0_combout $end
$var wire 1 3" I_data[9]~input_o $end
$var wire 1 4" I_data[5]~input_o $end
$var wire 1 5" Control|Selector2~0_combout $end
$var wire 1 6" I_data[10]~input_o $end
$var wire 1 7" I_data[6]~input_o $end
$var wire 1 8" Control|Selector1~0_combout $end
$var wire 1 9" I_data[11]~input_o $end
$var wire 1 :" I_data[7]~input_o $end
$var wire 1 ;" Control|Selector0~0_combout $end
$var wire 1 <" Control|WideOr2~0_combout $end
$var wire 1 =" Control|Selector7~0_combout $end
$var wire 1 >" Control|Selector6~0_combout $end
$var wire 1 ?" Control|Selector5~0_combout $end
$var wire 1 @" Control|Selector4~0_combout $end
$var wire 1 A" I_data[0]~input_o $end
$var wire 1 B" Control|RF_Rq_addr[0]~0_combout $end
$var wire 1 C" I_data[1]~input_o $end
$var wire 1 D" Control|RF_Rq_addr[1]~1_combout $end
$var wire 1 E" I_data[2]~input_o $end
$var wire 1 F" Control|RF_Rq_addr[2]~2_combout $end
$var wire 1 G" I_data[3]~input_o $end
$var wire 1 H" Control|RF_Rq_addr[3]~3_combout $end
$var wire 1 I" Control|RF_s1~combout $end
$var wire 1 J" Control|D_addr03[0]~2_combout $end
$var wire 1 K" Control|D_addr03[1]~3_combout $end
$var wire 1 L" Control|D_addr03[2]~4_combout $end
$var wire 1 M" Control|D_addr03[3]~5_combout $end
$var wire 1 N" Control|D_addr47[0]~0_combout $end
$var wire 1 O" Control|D_addr47[1]~1_combout $end
$var wire 1 P" Control|D_addr47[2]~2_combout $end
$var wire 1 Q" Control|D_addr47[3]~3_combout $end
$var wire 1 R" Control|RF_W_data03[0]~1_combout $end
$var wire 1 S" Control|RF_W_data03[1]~2_combout $end
$var wire 1 T" Control|RF_W_data03[2]~3_combout $end
$var wire 1 U" Control|RF_W_data03[3]~4_combout $end
$var wire 1 V" Control|RF_W_data47[0]~0_combout $end
$var wire 1 W" Control|RF_W_data47[1]~1_combout $end
$var wire 1 X" Control|RF_W_data47[2]~2_combout $end
$var wire 1 Y" Control|RF_W_data47[3]~3_combout $end
$var wire 1 Z" PCounter|PC_reg[0]~16_combout $end
$var wire 1 [" Control|stateReg.Init~q $end
$var wire 1 \" RF_Rp_zero~input_o $end
$var wire 1 ]" Control|nextState.JumpIfZeroJmp~0_combout $end
$var wire 1 ^" Control|stateReg.JumpIfZeroJmp~q $end
$var wire 1 _" PCounter|PC_reg[1]~18_combout $end
$var wire 1 `" PCounter|Add0~5_combout $end
$var wire 1 a" PCounter|PC_reg[0]~17 $end
$var wire 1 b" PCounter|PC_reg[1]~19_combout $end
$var wire 1 c" PCounter|Add0~8_combout $end
$var wire 1 d" PCounter|PC_reg[1]~20 $end
$var wire 1 e" PCounter|PC_reg[2]~21_combout $end
$var wire 1 f" PCounter|Add0~11_combout $end
$var wire 1 g" PCounter|PC_reg[2]~22 $end
$var wire 1 h" PCounter|PC_reg[3]~23_combout $end
$var wire 1 i" PCounter|Add0~14_combout $end
$var wire 1 j" PCounter|PC_reg[3]~24 $end
$var wire 1 k" PCounter|PC_reg[4]~25_combout $end
$var wire 1 l" PCounter|Add0~17_combout $end
$var wire 1 m" PCounter|PC_reg[4]~26 $end
$var wire 1 n" PCounter|PC_reg[5]~27_combout $end
$var wire 1 o" PCounter|Add0~20_combout $end
$var wire 1 p" PCounter|PC_reg[5]~28 $end
$var wire 1 q" PCounter|PC_reg[6]~29_combout $end
$var wire 1 r" PCounter|Add0~23_combout $end
$var wire 1 s" PCounter|PC_reg[6]~30 $end
$var wire 1 t" PCounter|PC_reg[7]~31_combout $end
$var wire 1 u" PCounter|Add0~26_combout $end
$var wire 1 v" PCounter|PC_reg[7]~32 $end
$var wire 1 w" PCounter|PC_reg[8]~33_combout $end
$var wire 1 x" PCounter|Add0~29_combout $end
$var wire 1 y" PCounter|PC_reg[8]~34 $end
$var wire 1 z" PCounter|PC_reg[9]~35_combout $end
$var wire 1 {" PCounter|Add0~32_combout $end
$var wire 1 |" PCounter|PC_reg[9]~36 $end
$var wire 1 }" PCounter|PC_reg[10]~37_combout $end
$var wire 1 ~" PCounter|Add0~35_combout $end
$var wire 1 !# PCounter|PC_reg[10]~38 $end
$var wire 1 "# PCounter|PC_reg[11]~39_combout $end
$var wire 1 ## PCounter|Add0~38_combout $end
$var wire 1 $# PCounter|PC_reg[11]~40 $end
$var wire 1 %# PCounter|PC_reg[12]~41_combout $end
$var wire 1 &# PCounter|Add0~41_combout $end
$var wire 1 '# PCounter|PC_reg[12]~42 $end
$var wire 1 (# PCounter|PC_reg[13]~43_combout $end
$var wire 1 )# PCounter|Add0~44_combout $end
$var wire 1 *# PCounter|PC_reg[13]~44 $end
$var wire 1 +# PCounter|PC_reg[14]~45_combout $end
$var wire 1 ,# PCounter|Add0~47_combout $end
$var wire 1 -# PCounter|PC_reg[14]~46 $end
$var wire 1 .# PCounter|PC_reg[15]~47_combout $end
$var wire 1 /# InstructionReader|IR_reg [15] $end
$var wire 1 0# InstructionReader|IR_reg [14] $end
$var wire 1 1# InstructionReader|IR_reg [13] $end
$var wire 1 2# InstructionReader|IR_reg [12] $end
$var wire 1 3# InstructionReader|IR_reg [11] $end
$var wire 1 4# InstructionReader|IR_reg [10] $end
$var wire 1 5# InstructionReader|IR_reg [9] $end
$var wire 1 6# InstructionReader|IR_reg [8] $end
$var wire 1 7# InstructionReader|IR_reg [7] $end
$var wire 1 8# InstructionReader|IR_reg [6] $end
$var wire 1 9# InstructionReader|IR_reg [5] $end
$var wire 1 :# InstructionReader|IR_reg [4] $end
$var wire 1 ;# InstructionReader|IR_reg [3] $end
$var wire 1 <# InstructionReader|IR_reg [2] $end
$var wire 1 =# InstructionReader|IR_reg [1] $end
$var wire 1 ># InstructionReader|IR_reg [0] $end
$var wire 1 ?# PCounter|PC_reg [15] $end
$var wire 1 @# PCounter|PC_reg [14] $end
$var wire 1 A# PCounter|PC_reg [13] $end
$var wire 1 B# PCounter|PC_reg [12] $end
$var wire 1 C# PCounter|PC_reg [11] $end
$var wire 1 D# PCounter|PC_reg [10] $end
$var wire 1 E# PCounter|PC_reg [9] $end
$var wire 1 F# PCounter|PC_reg [8] $end
$var wire 1 G# PCounter|PC_reg [7] $end
$var wire 1 H# PCounter|PC_reg [6] $end
$var wire 1 I# PCounter|PC_reg [5] $end
$var wire 1 J# PCounter|PC_reg [4] $end
$var wire 1 K# PCounter|PC_reg [3] $end
$var wire 1 L# PCounter|PC_reg [2] $end
$var wire 1 M# PCounter|PC_reg [1] $end
$var wire 1 N# PCounter|PC_reg [0] $end
$upscope $end
$upscope $end
$enddefinitions $end
#0
$dumpvars
0!
b110000000000000 "
b0 #
0$
0%
0'
0&
0/
0.
0-
0,
0+
0*
0)
0(
00
01
02
0B
0A
0@
0?
0>
0=
0<
0;
0:
09
08
07
06
05
04
03
0C
0G
0F
0E
0D
0H
0L
0K
0J
0I
0M
0O
0N
0S
0R
0Q
0P
0[
0Z
0Y
0X
0W
0V
0U
0T
0\
x]
0^
1_
x`
1a
1b
1c
0d
0e
0f
1g
0h
0i
0j
1k
0l
0m
0n
1o
0p
0q
0r
1s
0t
0u
0v
1w
0x
0y
0z
1{
0|
0}
0~
1!!
0"!
0#!
0$!
1%!
0&!
0'!
0(!
0)!
0*!
0+!
0,!
0-!
0.!
0/!
00!
01!
02!
03!
04!
05!
06!
07!
08!
09!
0:!
0;!
0<!
0=!
0>!
0?!
0@!
0A!
0B!
0C!
0D!
0E!
0F!
0G!
0H!
0I!
0J!
0K!
0L!
0M!
0N!
0O!
0P!
0Q!
0R!
0S!
0T!
0U!
0V!
0W!
0X!
0Y!
0Z!
0[!
0\!
0]!
0^!
0_!
0`!
0a!
0b!
0c!
0d!
0e!
0f!
0g!
0h!
0i!
0j!
0k!
0l!
0m!
0n!
0o!
0p!
0q!
1r!
1s!
0t!
1u!
0v!
0w!
0x!
0y!
0z!
0{!
0|!
0}!
0~!
0!"
0""
0#"
0$"
0%"
0&"
0'"
0("
1)"
0*"
0+"
0,"
1-"
0."
0/"
00"
01"
02"
03"
04"
05"
06"
07"
08"
09"
0:"
0;"
1<"
0="
0>"
0?"
0@"
0A"
0B"
0C"
0D"
0E"
0F"
0G"
0H"
0I"
0J"
0K"
0L"
0M"
0N"
0O"
0P"
0Q"
0R"
0S"
0T"
0U"
0V"
0W"
0X"
0Y"
1Z"
0["
0\"
0]"
0^"
1_"
0`"
0a"
0b"
0c"
1d"
0e"
0f"
0g"
0h"
0i"
1j"
0k"
0l"
0m"
0n"
0o"
1p"
0q"
0r"
0s"
0t"
0u"
1v"
0w"
0x"
0y"
0z"
0{"
1|"
0}"
0~"
0!#
0"#
0##
1$#
0%#
0&#
0'#
0(#
0)#
1*#
0+#
0,#
0-#
0.#
0>#
0=#
0<#
0;#
0:#
09#
08#
07#
06#
05#
04#
03#
02#
01#
00#
0/#
0N#
0M#
0L#
0K#
0J#
0I#
0H#
0G#
0F#
0E#
0D#
0C#
0B#
0A#
0@#
0?#
$end
#5000
1!
1n!
0]
1["
1v!
0%!
17!
1C
0u!
#10000
0!
0n!
1]
#15000
1!
1n!
0]
10#
11#
1p!
1N#
0v!
1z!
1&!
1d
0_"
1^!
07!
1B
0C
1{!
1a"
0Z"
1b"
#20000
0!
0n!
1]
#25000
1!
1n!
0]
0p!
1|!
0z!
1%!
0)"
1=!
11
1I"
1."
1}!
0{!
1u!
1<!
1K!
1;!
18!
1M
1N
1H
10
1*"
1:!
1\
#30000
0!
0n!
1]
#35000
1!
1n!
0]
0|!
1v!
1)"
1_"
0%!
0=!
17!
01
1C
0I"
0."
0}!
0u!
0<!
0K!
0;!
08!
0M
0N
0H
00
0*"
0:!
0\
#40000
0!
0n!
1]
#45000
1!
1n!
0]
1p!
1M#
0N#
0v!
1z!
1`"
1f
0&!
0d
0_"
1_!
0^!
07!
1A
0B
0C
1{!
0d"
0b"
0a"
1Z"
1e"
1d"
1b"
0e"
#50000
0!
0n!
1]
#55000
1!
1n!
0]
0p!
1|!
0z!
1%!
0)"
1=!
11
1I"
1."
1}!
0{!
1u!
1<!
1K!
1;!
18!
1M
1N
1H
10
1*"
1:!
1\
#60000
0!
0n!
1]
#65000
1!
1n!
0]
0|!
1v!
1)"
1_"
0%!
0=!
17!
01
1C
0I"
0."
0}!
0u!
0<!
0K!
0;!
08!
0M
0N
0H
00
0*"
0:!
0\
#70000
0!
0n!
1]
#75000
1!
1n!
0]
1p!
1N#
0v!
1z!
1&!
1d
0_"
1^!
07!
1B
0C
1{!
1a"
0Z"
0d"
0b"
1e"
#80000
0!
0n!
1]
#85000
1!
1n!
0]
0p!
1|!
0z!
1%!
0)"
1=!
11
1I"
1."
1}!
0{!
1u!
1<!
1K!
1;!
18!
1M
1N
1H
10
1*"
1:!
1\
#90000
0!
0n!
1]
#95000
1!
1n!
0]
0|!
1v!
1)"
1_"
0%!
0=!
17!
01
1C
0I"
0."
0}!
0u!
0<!
0K!
0;!
08!
0M
0N
0H
00
0*"
0:!
0\
#100000
0!
0n!
1]
#105000
1!
1n!
0]
1p!
1L#
0M#
0N#
0v!
1z!
1c"
1h
0`"
0f
0&!
0d
0_"
1`!
0_!
0^!
07!
1@
0A
0B
0C
1{!
1g"
0e"
1d"
1b"
0a"
1Z"
1h"
0g"
1e"
0b"
0h"
#110000
0!
0n!
1]
#115000
1!
1n!
0]
0p!
1|!
0z!
1%!
0)"
1=!
11
1I"
1."
1}!
0{!
1u!
1<!
1K!
1;!
18!
1M
1N
1H
10
1*"
1:!
1\
#120000
0!
0n!
1]
#125000
1!
1n!
0]
0|!
1v!
1)"
1_"
0%!
0=!
17!
01
1C
0I"
0."
0}!
0u!
0<!
0K!
0;!
08!
0M
0N
0H
00
0*"
0:!
0\
#130000
0!
0n!
1]
#135000
1!
1n!
0]
1p!
1N#
0v!
1z!
1&!
1d
0_"
1^!
07!
1B
0C
1{!
1a"
0Z"
1b"
#140000
0!
0n!
1]
#145000
1!
1n!
0]
0p!
1|!
0z!
1%!
0)"
1=!
11
1I"
1."
1}!
0{!
1u!
1<!
1K!
1;!
18!
1M
1N
1H
10
1*"
1:!
1\
#150000
0!
0n!
1]
#155000
1!
1n!
0]
0|!
1v!
1)"
1_"
0%!
0=!
17!
01
1C
0I"
0."
0}!
0u!
0<!
0K!
0;!
08!
0M
0N
0H
00
0*"
0:!
0\
#160000
0!
0n!
1]
#165000
1!
1n!
0]
1p!
1M#
0N#
0v!
1z!
1`"
1f
0&!
0d
0_"
1_!
0^!
07!
1A
0B
0C
1{!
0d"
0b"
0a"
1Z"
1g"
0e"
1d"
1b"
1h"
0g"
1e"
0h"
#170000
0!
0n!
1]
#175000
1!
1n!
0]
0p!
1|!
0z!
1%!
0)"
1=!
11
1I"
1."
1}!
0{!
1u!
1<!
1K!
1;!
18!
1M
1N
1H
10
1*"
1:!
1\
#180000
0!
0n!
1]
#185000
1!
1n!
0]
0|!
1v!
1)"
1_"
0%!
0=!
17!
01
1C
0I"
0."
0}!
0u!
0<!
0K!
0;!
08!
0M
0N
0H
00
0*"
0:!
0\
#190000
0!
0n!
1]
#195000
1!
1n!
0]
1p!
1N#
0v!
1z!
1&!
1d
0_"
1^!
07!
1B
0C
1{!
1a"
0Z"
0d"
0b"
1g"
0e"
1h"
#200000
0!
0n!
1]
#205000
1!
1n!
0]
0p!
1|!
0z!
1%!
0)"
1=!
11
1I"
1."
1}!
0{!
1u!
1<!
1K!
1;!
18!
1M
1N
1H
10
1*"
1:!
1\
#210000
0!
0n!
1]
#215000
1!
1n!
0]
0|!
1v!
1)"
1_"
0%!
0=!
17!
01
1C
0I"
0."
0}!
0u!
0<!
0K!
0;!
08!
0M
0N
0H
00
0*"
0:!
0\
#220000
0!
0n!
1]
#225000
1!
1n!
0]
1p!
1K#
0L#
0M#
0N#
0v!
1z!
1f"
1j
0c"
0h
0`"
0f
0&!
0d
0_"
1a!
0`!
0_!
0^!
07!
1?
0@
0A
0B
0C
1{!
0j"
0h"
0g"
1e"
1d"
1b"
0a"
1Z"
1k"
1j"
1h"
0e"
0b"
0k"
#230000
0!
0n!
1]
#235000
1!
1n!
0]
0p!
1|!
0z!
1%!
0)"
1=!
11
1I"
1."
1}!
0{!
1u!
1<!
1K!
1;!
18!
1M
1N
1H
10
1*"
1:!
1\
#240000
0!
0n!
1]
#245000
1!
1n!
0]
0|!
1v!
1)"
1_"
0%!
0=!
17!
01
1C
0I"
0."
0}!
0u!
0<!
0K!
0;!
08!
0M
0N
0H
00
0*"
0:!
0\
#250000
0!
0n!
1]
#255000
1!
1n!
0]
1p!
1N#
0v!
1z!
1&!
1d
0_"
1^!
07!
1B
0C
1{!
1a"
0Z"
1b"
#260000
0!
0n!
1]
#265000
1!
1n!
0]
0p!
1|!
0z!
1%!
0)"
1=!
11
1I"
1."
1}!
0{!
1u!
1<!
1K!
1;!
18!
1M
1N
1H
10
1*"
1:!
1\
#270000
0!
0n!
1]
#275000
1!
1n!
0]
0|!
1v!
1)"
1_"
0%!
0=!
17!
01
1C
0I"
0."
0}!
0u!
0<!
0K!
0;!
08!
0M
0N
0H
00
0*"
0:!
0\
#280000
0!
0n!
1]
#285000
1!
1n!
0]
1p!
1M#
0N#
0v!
1z!
1`"
1f
0&!
0d
0_"
1_!
0^!
07!
1A
0B
0C
1{!
0d"
0b"
0a"
1Z"
1e"
1d"
1b"
0e"
#290000
0!
0n!
1]
#295000
1!
1n!
0]
0p!
1|!
0z!
1%!
0)"
1=!
11
1I"
1."
1}!
0{!
1u!
1<!
1K!
1;!
18!
1M
1N
1H
10
1*"
1:!
1\
#300000
0!
0n!
1]
#305000
1!
1n!
0]
0|!
1v!
1)"
1_"
0%!
0=!
17!
01
1C
0I"
0."
0}!
0u!
0<!
0K!
0;!
08!
0M
0N
0H
00
0*"
0:!
0\
#310000
0!
0n!
1]
#315000
1!
1n!
0]
1p!
1N#
0v!
1z!
1&!
1d
0_"
1^!
07!
1B
0C
1{!
1a"
0Z"
0d"
0b"
1e"
#320000
0!
0n!
1]
#325000
1!
1n!
0]
0p!
1|!
0z!
1%!
0)"
1=!
11
1I"
1."
1}!
0{!
1u!
1<!
1K!
1;!
18!
1M
1N
1H
10
1*"
1:!
1\
#330000
0!
0n!
1]
#335000
1!
1n!
0]
0|!
1v!
1)"
1_"
0%!
0=!
17!
01
1C
0I"
0."
0}!
0u!
0<!
0K!
0;!
08!
0M
0N
0H
00
0*"
0:!
0\
#340000
0!
0n!
1]
#345000
1!
1n!
0]
1p!
1L#
0M#
0N#
0v!
1z!
1c"
1h
0`"
0f
0&!
0d
0_"
1`!
0_!
0^!
07!
1@
0A
0B
0C
1{!
1g"
0e"
1d"
1b"
0a"
1Z"
0j"
0h"
0g"
1e"
0b"
1k"
1j"
1h"
0k"
#350000
0!
0n!
1]
#355000
1!
1n!
0]
0p!
1|!
0z!
1%!
0)"
1=!
11
1I"
1."
1}!
0{!
1u!
1<!
1K!
1;!
18!
1M
1N
1H
10
1*"
1:!
1\
#360000
0!
0n!
1]
#365000
1!
1n!
0]
0|!
1v!
1)"
1_"
0%!
0=!
17!
01
1C
0I"
0."
0}!
0u!
0<!
0K!
0;!
08!
0M
0N
0H
00
0*"
0:!
0\
#370000
0!
0n!
1]
#375000
1!
1n!
0]
1p!
1N#
0v!
1z!
1&!
1d
0_"
1^!
07!
1B
0C
1{!
1a"
0Z"
1b"
#380000
0!
0n!
1]
#385000
1!
1n!
0]
0p!
1|!
0z!
1%!
0)"
1=!
11
1I"
1."
1}!
0{!
1u!
1<!
1K!
1;!
18!
1M
1N
1H
10
1*"
1:!
1\
#390000
0!
0n!
1]
#395000
1!
1n!
0]
0|!
1v!
1)"
1_"
0%!
0=!
17!
01
1C
0I"
0."
0}!
0u!
0<!
0K!
0;!
08!
0M
0N
0H
00
0*"
0:!
0\
#400000
0!
0n!
1]
#405000
1!
1n!
0]
1p!
1M#
0N#
0v!
1z!
1`"
1f
0&!
0d
0_"
1_!
0^!
07!
1A
0B
0C
1{!
0d"
0b"
0a"
1Z"
1g"
0e"
1d"
1b"
0j"
0h"
0g"
1e"
1k"
1j"
1h"
0k"
#410000
0!
0n!
1]
#415000
1!
1n!
0]
0p!
1|!
0z!
1%!
0)"
1=!
11
1I"
1."
1}!
0{!
1u!
1<!
1K!
1;!
18!
1M
1N
1H
10
1*"
1:!
1\
#420000
0!
0n!
1]
#425000
1!
1n!
0]
0|!
1v!
1)"
1_"
0%!
0=!
17!
01
1C
0I"
0."
0}!
0u!
0<!
0K!
0;!
08!
0M
0N
0H
00
0*"
0:!
0\
#430000
0!
0n!
1]
#435000
1!
1n!
0]
1p!
1N#
0v!
1z!
1&!
1d
0_"
1^!
07!
1B
0C
1{!
1a"
0Z"
0d"
0b"
1g"
0e"
0j"
0h"
1k"
#440000
0!
0n!
1]
#445000
1!
1n!
0]
0p!
1|!
0z!
1%!
0)"
1=!
11
1I"
1."
1}!
0{!
1u!
1<!
1K!
1;!
18!
1M
1N
1H
10
1*"
1:!
1\
#450000
0!
0n!
1]
#455000
1!
1n!
0]
0|!
1v!
1)"
1_"
0%!
0=!
17!
01
1C
0I"
0."
0}!
0u!
0<!
0K!
0;!
08!
0M
0N
0H
00
0*"
0:!
0\
#460000
0!
0n!
1]
#465000
1!
1n!
0]
1p!
1J#
0K#
0L#
0M#
0N#
0v!
1z!
1i"
1l
0f"
0j
0c"
0h
0`"
0f
0&!
0d
0_"
1b!
0a!
0`!
0_!
0^!
07!
1>
0?
0@
0A
0B
0C
1{!
1m"
0k"
1j"
1h"
0g"
1e"
1d"
1b"
0a"
1Z"
1n"
0m"
1k"
0h"
0e"
0b"
0n"
#470000
0!
0n!
1]
#475000
1!
1n!
0]
0p!
1|!
0z!
1%!
0)"
1=!
11
1I"
1."
1}!
0{!
1u!
1<!
1K!
1;!
18!
1M
1N
1H
10
1*"
1:!
1\
#480000
0!
0n!
1]
#485000
1!
1n!
0]
0|!
1v!
1)"
1_"
0%!
0=!
17!
01
1C
0I"
0."
0}!
0u!
0<!
0K!
0;!
08!
0M
0N
0H
00
0*"
0:!
0\
#490000
0!
0n!
1]
#495000
1!
1n!
0]
1p!
1N#
0v!
1z!
1&!
1d
0_"
1^!
07!
1B
0C
1{!
1a"
0Z"
1b"
